{
    "Header": {

        "title": "{/Developer Comunity} ",
        "paragraph": "We represant the developers comunity of leetCode"

    },
    "About": {
        "paragraph": "Software developers are the creative minds behind computer programs. Some develop the applications that allow people to do specific tasks on a computer or another device. Others develop the underlying systems that run the devices or that control networks.",
        "Why": [
            "We are the engineering comunity in the industry",
            "Creative teams to provide best instructions",
            "Online resoruces to learn",
            "Real time projects"
        ],
        "Why2": [
            "Best online platforme to developers",
            "Allow the users to Collabarate with comunity",
            "Reliable opertunities",
            "Wisdom center"
        ]
    },
    "Services": [{
            "icon": "fa fa-html5",
            "name": "Web Sites and Web Apps",
            "text": "our comunity ensure responsive web apps to their clients"
        },
        {
            "icon": "fa fa-android",
            "name": "Android",
            "text": "We ensure to build reliable resources for android mobile applications"
        },
        {
            "icon": "fa fa-cloud-download",
            "name": "Amozan Web Server",
            "text": "Comunity ensures to provide scalable cloud solutions and architectures"
        },
        {
            "icon": "fa fa-language",
            "name": "service in multiple languages",
            "text": "we ensure our reliable advices are delivered in multiple languages"
        },
        {
            "icon": "fa fa-plane",
            "name": "migration Offers",
            "text": "Our comunity provides migration Offers for shoolarship holders"
        },
        {
            "icon": "fa fa-briefcase",
            "name": "Office Hub",
            "text": "Office"
        }


    ],
    "Testimonials": [{
            "img": "img/testimonials/01.jpg",
            "text": "\"It's awesome,but the only problem am having is sometimes I can make video and audio calls,but I can send mesages.\"",
            "name": "John Doee"
        },
        {
            "img": "img/testimonials/02.jpg",
            "text": "\"I like this more. It makes communication easier with my family, friends or any other personal office.\"",
            "name": "Johnathan Doe"
        },
        {
            "img": "img/testimonials/03.jpg",
            "text": "\"The new update is worse. The last one was the best. In the new update, there is no option showing you that who messaged u. \"",
            "name": "John Doe"
        },
        {
            "img": "img/testimonials/04.jpg",
            "text": "\"Very great app. One feature I miss is being able to schedule messages.\"",
            "name": "Johnathan Doe"
        },
        {
            "img": "img/testimonials/05.jpg",
            "text": "\"Love app but currently it's killing my battery (massive background usage). Please fix. Also please consider: - edit message (rather than delete and resend); \"",
            "name": "John Doe"
        },
        {
            "img": "img/testimonials/06.jpg",
            "text": "\"Nice to use and the status feature (similar to a facebook story as it disappears after 24 hours) is cool.\"",
            "name": "Johnathan Doe"
        }
    ],
    "Team": [{
            "img": "img/team/01.jpg",
            "name": "John Doe",
            "job": "Tech Lead"
        },
        {
            "img": "img/team/02.jpg",
            "name": "Mike Doe",
            "job": "Senior Software Engineer"
        }, {
            "img": "img/team/03.jpg",
            "name": "Jane Doe",
            "job": "Software engineer"
        },
        {
            "img": "img/team/04.jpg",
            "name": "Karen Doe",
            "job": "Software Engineer"
        }
    ],
    "Contact": {
        "address": "Dehiwala, Colombo",
        "phone": "0762382220",
        "email": "hamjeth68@gmail.com",
        "facebook": "fb.com",
        "twitter": "twitter.com",
        "youtube": "youtube.com"
    },
    "Features": [{
            "icon": "fa fa-comments-o",
            "title": "Comunity Chat",
            "text": "Developer Station"
        },
        {
            "icon": "fa fa-graduation-cap",
            "title": "Online Course",
            "text": "Software development, data structures and algorithms and mobile application development"
        },
        {
            "icon": "fa fa-group",
            "title": "Comunity Network",
            "text": "here you can collabarate with other developers relating with projects"
        },
        {
            "icon": "fa fa-github",
            "title": "GItHub",
            "text": "project to be published"
        }
    ]
}